<svg xmlns="http://www.w3.org/2000/svg" width="18" height="18" viewBox="0 0 18 18">
  <path d="M11.591 2v2.185c0 .984.828 1.777 1.834 1.777h1.15c1.006 0 1.823-.793 1.823-1.777V2.008c.88.026 1.602.737 1.602 1.612v12.757c0 .89-.74 1.623-1.65 1.623H1.65C.739 18 0 17.268 0 16.377V3.62c0-.875.723-1.586 1.602-1.612v2.177c0 .984.817 1.777 1.823 1.777h1.15c1.006 0 1.834-.793 1.834-1.777V2h5.182zm3.56 6.296H2.817a.706.706 0 00-.713.697v6.59c0 .385.32.697.713.697H15.15a.706.706 0 00.714-.697v-6.59a.706.706 0 00-.714-.697zM6.635 14c.2 0 .364.163.364.364v1.272a.364.364 0 01-.364.364H5.364A.364.364 0 015 15.636v-1.272c0-.201.163-.364.364-.364zm3 0c.2 0 .364.163.364.364v1.272a.364.364 0 01-.364.364H8.364A.364.364 0 018 15.636v-1.272c0-.201.163-.364.364-.364zm3 0c.2 0 .364.163.364.364v1.272a.364.364 0 01-.364.364h-1.272a.364.364 0 01-.364-.364v-1.272c0-.201.163-.364.364-.364zm-6-4c.2 0 .364.163.364.364v1.272a.364.364 0 01-.364.364H5.364A.364.364 0 015 11.636v-1.272c0-.201.163-.364.364-.364zm3 0c.2 0 .364.163.364.364v1.272a.364.364 0 01-.364.364H8.364A.364.364 0 018 11.636v-1.272c0-.201.163-.364.364-.364zm3 0c.2 0 .364.163.364.364v1.272a.364.364 0 01-.364.364h-1.272a.364.364 0 01-.364-.364v-1.272c0-.201.163-.364.364-.364zM5.476 0C5.766 0 6 .285 6 .638v3.725C6 4.715 5.766 5 5.476 5h-.952C4.234 5 4 4.715 4 4.363V.638C4 .285 4.234 0 4.524 0zm9 0c.29 0 .524.285.524.638v3.725c0 .352-.234.637-.524.637h-.952c-.29 0-.524-.285-.524-.637V.638c0-.353.234-.638.524-.638z"/>
</svg>
