<svg xmlns="http://www.w3.org/2000/svg" width="14" height="18" viewBox="0 0 14 18">
  <path d="M6.992 0C10.857 0 13.984 3.048 14 6.782c0 2.24-1.273 4.375-2.451 6.219a26.314 26.314 0 01-3.881 4.725.95.95 0 01-1.336 0 28.537 28.537 0 01-4.336-5.594C1.006 10.502 0 8.733 0 6.782 0 3.033 3.127 0 6.992 0zm0 2.484C4.651 2.484 2.75 4.33 2.75 6.6c0 2.27 1.901 4.115 4.242 4.115s4.243-1.83 4.243-4.115c0-2.287-1.902-4.116-4.243-4.116z"/>
</svg>
